{
  "profiles": {
    "UrgentTech": {
      "commandName": "Project",
      "commandLineArgs": "--processor=builder --json-input=files\\list.json --output-target=files\\output.json --output=console --log=console  --log-to=files\\reportlog.log"
    }
  }
}